{
  "status":{
    "os":{
      "opened": { "id": 1, "description": "em aberto"},
      "inProgress": { "id": 2, "description": "em andamento"},
      "evaluationCompleted": { "id": 3, "description": "avaliação concluída"},
      "waitingForApproval": { "id": 4, "description": "aguardando aprovação"},
      "okay": { "id": 5, "description": "aprovada"},
      "disapproved": { "id": 6, "description": "reprovada"},
      "closed": { "id": 7, "description": "fechada"}
    },
    "nf": {
      "uninvoiced": { "id": 1, "description": "não faturado"},
      "billed": { "id": 2, "description": "faturado"}
    }
  },
  "type":{
    "user":{
      "admin": { "id": 1, "description": "admin"},
      "client": { "id": 2, "description": "cliente"},
      "mechanic": { "id": 3, "description": "mecânico"}
    },
    "service":{
      "corrective": { "id": 1, "description": "corretiva"},
      "preventive": { "id": 2, "description": "preventiva"}
    },
    "avaluateService": {
      "great": { "id": 1, "description": "ótimo"},
      "good": { "id": 2, "description": "bom"},
      "regular":{ "id": 3, "description": "regular"},
      "bad":{ "id": 4, "description": "ruim"}
    }
  },
  "situation":{
    "equipment":{
      "stop": { "id": 1, "description": "parado"},
      "working": { "id": 2, "description": "funcionando"}
    }
  }
}